{
  "project_info": {
    "project_number": "238063264999",
    "firebase_url": "https://mbcardio-581e9.firebaseio.com",
    "project_id": "mbcardio-581e9",
    "storage_bucket": "mbcardio-581e9.appspot.com"
  },
  "client": [
    {
      "client_info": {
        "mobilesdk_app_id": "1:238063264999:android:e69ed18fc0ad9fe9",
        "android_client_info": {
          "package_name": "com.nupasd.mibandcardio"
        }
      },
      "oauth_client": [
        {
          "client_id": "238063264999-md6mhjj5he3rk7vo2d0ce3vrf2g2iivk.apps.googleusercontent.com",
          "client_type": 1,
          "android_info": {
            "package_name": "com.nupasd.mibandcardio",
            "certificate_hash": "bb95fbb6f45cd465a1b561d79560fcb403f01d5d"
          }
        },
        {
          "client_id": "238063264999-bjfvgplcalgu0jmoitmsj785pm5evndt.apps.googleusercontent.com",
          "client_type": 3
        }
      ],
      "api_key": [
        {
          "current_key": "AIzaSyD8s_npbrESHT0yvwBDCSjbXuwVbvkyml8"
        }
      ],
      "services": {
        "analytics_service": {
          "status": 1
        },
        "appinvite_service": {
          "status": 2,
          "other_platform_oauth_client": [
            {
              "client_id": "238063264999-bjfvgplcalgu0jmoitmsj785pm5evndt.apps.googleusercontent.com",
              "client_type": 3
            }
          ]
        },
        "ads_service": {
          "status": 2
        }
      }
    },
    {
      "client_info": {
        "mobilesdk_app_id": "1:238063264999:android:345b982163a63a5f",
        "android_client_info": {
          "package_name": "com.pessoal.hilton.notifications"
        }
      },
      "oauth_client": [
        {
          "client_id": "238063264999-o3ptnd727n0hboqu9n8jvi07sq35ibqn.apps.googleusercontent.com",
          "client_type": 1,
          "android_info": {
            "package_name": "com.pessoal.hilton.notifications",
            "certificate_hash": "ce85cb641cd5689619abfa258fbcd1405d32bd96"
          }
        },
        {
          "client_id": "238063264999-bjfvgplcalgu0jmoitmsj785pm5evndt.apps.googleusercontent.com",
          "client_type": 3
        }
      ],
      "api_key": [
        {
          "current_key": "AIzaSyD8s_npbrESHT0yvwBDCSjbXuwVbvkyml8"
        }
      ],
      "services": {
        "analytics_service": {
          "status": 1
        },
        "appinvite_service": {
          "status": 2,
          "other_platform_oauth_client": [
            {
              "client_id": "238063264999-bjfvgplcalgu0jmoitmsj785pm5evndt.apps.googleusercontent.com",
              "client_type": 3
            }
          ]
        },
        "ads_service": {
          "status": 2
        }
      }
    }
  ],
  "configuration_version": "1"
}